%YAML 1.1
%TAG !u! tag:unity3d.com,2011:
--- !u!221 &22100000
AnimatorOverrideController:
  m_ObjectHideFlags: 0
  m_PrefabParentObject: {fileID: 0}
  m_PrefabInternal: {fileID: 0}
  m_Name: HellephantAOC
  m_Controller: {fileID: 9100000, guid: da611bf0a96bd4540a489b8f5db8db3c, type: 2}
  m_Clips:
  - m_OriginalClip: {fileID: 7400000, guid: be66986effd141b4992d2d78be127139, type: 3}
    m_OverrideClip: {fileID: 7400000, guid: b77f122f451a2394898a24191c26107c, type: 3}
  - m_OriginalClip: {fileID: 7400002, guid: be66986effd141b4992d2d78be127139, type: 3}
    m_OverrideClip: {fileID: 7400002, guid: b77f122f451a2394898a24191c26107c, type: 3}
  - m_OriginalClip: {fileID: 7400004, guid: be66986effd141b4992d2d78be127139, type: 3}
    m_OverrideClip: {fileID: 7400004, guid: b77f122f451a2394898a24191c26107c, type: 3}
